{
	"id": "6a3e997d-74a1-4f67-b30d-ce9bc7474180",
	"name": "ToolsList",
	"values": [
		{
			"key": "name",
			"value": "testname",
			"description": "",
			"enabled": true
		},
		{
			"key": "use",
			"value": "testuser",
			"description": "",
			"enabled": true
		},
		{
			"key": "website",
			"value": "www.testwebsite.com",
			"description": "",
			"enabled": true
		}
	],
	"_postman_variable_scope": "environment",
	"_postman_exported_at": "2019-04-18T13:51:28.840Z",
	"_postman_exported_using": "Postman/7.0.6"
}